{
  "intents": [
    {
      "intent": "AMAZON.CancelIntent"
    },
    {
      "intent": "AMAZON.HelpIntent"
    },
    {
      "intent": "AMAZON.StopIntent"
    },
    {
      "intent": "HelloIntent"
    },
    {
      "intent": "DebugIntent"
    }
  ]
}